lab02/data/part_1/oscilloscope_sin/F0004FFT.CSV

Record Length,1.024000e+03,,          0.00000, -33.34850,
Sample Interval,4.932134e+02,,        493.21338, -28.94850,
Trigger Point,-0.000000000000e+00,,        986.42677,  -8.94850,
,,,       1479.64015, -30.14850,
,,,       1972.85354, -36.94850,
,,,       2466.06692, -40.94850,
Source,FFT,,       2959.28030, -43.34850,
Vertical Units,dB,,       3452.49369, -46.14850,
Vertical Scale,1.000000e+01,,       3945.70707, -47.34850,
Vertical Offset,0.000000e+00,,       4438.92045, -48.94850,
Horizontal Units,Hz,,       4932.13384, -50.14850,
Horizontal Scale,5.050505e+04,,       5425.34722, -51.74850,
Pt Fmt,Y,,       5918.56061, -51.74850,
Yzero,-3.494850e+01,,       6411.77399, -53.34850,
Probe Atten,1.000000e+00,,       6904.98737, -54.14850,
Model Number,TBS1052B-EDU,,       7398.20076, -54.14850,
Serial Number,C050624,,       7891.41414, -55.34850,
Firmware Version,FV:v4.06,,       8384.62753, -55.34850,
,,,8877.84091, -55.74850,
,,,9371.05429, -56.14850,
,,,9864.26767, -56.14850,
,,,10357.48105, -57.74850,
,,,10850.69443, -57.74850,
,,,11343.90781, -57.74850,
,,,11837.12119, -58.14850,
,,,12330.33457, -59.34850,
,,,12823.54795, -58.94850,
,,,13316.76133, -58.94850,
,,,13809.97471, -60.54850,
,,,14303.18809, -60.54850,
,,,14796.40147, -60.14850,
,,,15289.61485, -60.94850,
,,,15782.82823, -61.74850,
,,,16276.04161, -59.34850,
,,,16769.25499, -61.74850,
,,,17262.46837, -62.14850,
,,,17755.68175, -62.94850,
,,,18248.89513, -62.94850,
,,,18742.10851, -62.94850,
,,,19235.32189, -62.14850,
,,,19728.53527, -64.14850,
,,,20221.74865, -62.14850,
,,,20714.96203, -63.34850,
,,,21208.17541, -64.54850,
,,,21701.38879, -62.94850,
,,,22194.60217, -64.14850,
,,,22687.81555, -61.74850,
,,,23181.02893, -63.74850,
,,,23674.24231, -63.34850,
,,,24167.45569, -66.94850,
,,,24660.66907, -65.74850,
,,,25153.88245, -65.34850,
,,,25647.09583, -62.54850,
,,,26140.30921, -65.34850,
,,,26633.52259, -65.34850,
,,,27126.73597, -64.54850,
,,,27619.94935, -64.54850,
,,,28113.16273, -65.34850,
,,,28606.37611, -65.34850,
,,,29099.58949, -66.54850,
,,,29592.80287, -66.14850,
,,,30086.01625, -66.94850,
,,,30579.22963, -66.14850,
,,,31072.44301, -71.34850,
,,,31565.65639, -68.94850,
,,,32058.86977, -66.94850,
,,,32552.08315, -66.14850,
,,,33045.29653, -68.94850,
,,,33538.50991, -67.74850,
,,,34031.72329, -68.94850,
,,,34524.93667, -66.14850,
,,,35018.15005, -69.74850,
,,,35511.36343, -68.94850,
,,,36004.57681, -68.94850,
,,,36497.79019, -67.74850,
,,,36991.00357, -66.94850,
,,,37484.21695, -68.94850,
,,,37977.43033, -65.34850,
,,,38470.64371, -71.34850,
,,,38963.85709, -74.94850,
,,,39457.07047, -70.14850,
,,,39950.28385, -69.34850,
,,,40443.49723, -68.94850,
,,,40936.71061, -68.94850,
,,,41429.92399, -68.94850,
,,,41923.13737, -67.74850,
,,,42416.35075, -68.94850,
,,,42909.56413, -70.14850,
,,,43402.77751, -74.54850,
,,,43895.99089, -70.94850,
,,,44389.20427, -70.14850,
,,,44882.41765, -70.14850,
,,,45375.63103, -74.94850,
,,,45868.84441, -72.94850,
,,,46362.05779, -74.94850,
,,,46855.27117, -69.74850,
,,,47348.48455, -74.94850,
,,,47841.69793, -70.14850,
,,,48334.91131, -71.74850,
,,,48828.12469, -70.14850,
,,,49321.33807, -72.14850,
,,,49814.55145, -72.14850,
,,,50307.76483, -74.94850,
,,,50800.97821, -71.34850,
,,,51294.19159, -72.94850,
,,,51787.40497, -68.94850,
,,,52280.61835, -71.34850,
,,,52773.83173, -73.74850,
,,,53267.04511, -70.14850,
,,,53760.25849, -72.94850,
,,,54253.47187, -70.94850,
,,,54746.68525, -74.54850,
,,,55239.89863, -74.54850,
,,,55733.11201, -69.74850,
,,,56226.32539, -67.74850,
,,,56719.53877, -74.54850,
,,,57212.75215, -71.34850,
,,,57705.96553, -71.74850,
,,,58199.17891, -71.34850,
,,,58692.39229, -71.34850,
,,,59185.60567, -71.74850,
,,,59678.81905, -71.74850,
,,,60172.03243, -72.94850,
,,,60665.24581, -68.94850,
,,,61158.45919, -74.94850,
,,,61651.67257, -72.94850,
,,,62144.88595, -71.34850,
,,,62638.09933, -68.54850,
,,,63131.31271, -72.94850,
,,,63624.52609, -74.94850,
,,,64117.73947, -74.54850,
,,,64610.95285, -70.54850,
,,,65104.16623, -74.54850,
,,,65597.37961, -74.94850,
,,,66090.59299, -71.34850,
,,,66583.80637, -72.94850,
,,,67077.01975, -74.94850,
,,,67570.23313, -72.14850,
,,,68063.44651, -74.54850,
,,,68556.65989, -74.54850,
,,,69049.87327, -73.74850,
,,,69543.08665, -74.94850,
,,,70036.30003, -72.94850,
,,,70529.51341, -71.34850,
,,,71022.72679, -72.14850,
,,,71515.94017, -74.94850,
,,,72009.15355, -73.74850,
,,,72502.36693, -74.94850,
,,,72995.58031, -74.94850,
,,,73488.79369, -74.94850,
,,,73982.00707, -72.94850,
,,,74475.22045, -72.94850,
,,,74968.43383, -74.94850,
,,,75461.64721, -72.94850,
,,,75954.86059, -71.34850,
,,,76448.07397, -73.74850,
,,,76941.28735, -69.74850,
,,,77434.50073, -74.94850,
,,,77927.71411, -70.94850,
,,,78420.92749, -70.14850,
,,,78914.14087, -74.94850,
,,,79407.35425, -74.94850,
,,,79900.56763, -74.94850,
,,,80393.78101, -74.94850,
,,,80886.99439, -70.94850,
,,,81380.20777, -74.94850,
,,,81873.42115, -73.74850,
,,,82366.63453, -74.94850,
,,,82859.84791, -74.94850,
,,,83353.06129, -74.94850,
,,,83846.27467, -74.94850,
,,,84339.48805, -74.54850,
,,,84832.70143, -74.94850,
,,,85325.91481, -74.94850,
,,,85819.12819, -72.94850,
,,,86312.34157, -73.74850,
,,,86805.55495, -74.94850,
,,,87298.76833, -73.74850,
,,,87791.98171, -73.74850,
,,,88285.19509, -74.94850,
,,,88778.40847, -71.34850,
,,,89271.62185, -72.94850,
,,,89764.83523, -73.74850,
,,,90258.04861, -74.94850,
,,,90751.26199, -74.94850,
,,,91244.47537, -72.94850,
,,,91737.68875, -71.34850,
,,,92230.90213, -74.54850,
,,,92724.11551, -71.34850,
,,,93217.32889, -74.94850,
,,,93710.54227, -74.94850,
,,,94203.75565, -74.54850,
,,,94696.96903, -74.94850,
,,,95190.18241, -74.94850,
,,,95683.39579, -74.54850,
,,,96176.60917, -74.54850,
,,,96669.82255, -74.54850,
,,,97163.03593, -74.94850,
,,,97656.24931, -74.94850,
,,,98149.46269, -74.94850,
,,,98642.67607, -74.94850,
,,,99135.88945, -74.94850,
,,,99629.10283, -74.54850,
,,,100122.31621, -74.94850,
,,,100615.52959, -74.94850,
,,,101108.74297, -74.94850,
,,,101601.95635, -74.94850,
,,,102095.16973, -74.94850,
,,,102588.38311, -73.74850,
,,,103081.59649, -72.94850,
,,,103574.80987, -74.94850,
,,,104068.02325, -74.94850,
,,,104561.23663, -74.94850,
,,,105054.45001, -74.94850,
,,,105547.66339, -74.94850,
,,,106040.87677, -74.54850,
,,,106534.09015, -74.94850,
,,,107027.30353, -74.94850,
,,,107520.51691, -74.94850,
,,,108013.73029, -74.54850,
,,,108506.94367, -74.94850,
,,,109000.15705, -72.94850,
,,,109493.37043, -74.94850,
,,,109986.58381, -74.94850,
,,,110479.79719, -72.14850,
,,,110973.01057, -74.94850,
,,,111466.22395, -74.94850,
,,,111959.43733, -71.34850,
,,,112452.65071, -74.54850,
,,,112945.86409, -74.54850,
,,,113439.07747, -74.94850,
,,,113932.29085, -74.94850,
,,,114425.50423, -74.94850,
,,,114918.71761, -74.94850,
,,,115411.93099, -74.94850,
,,,115905.14437, -73.74850,
,,,116398.35775, -74.94850,
,,,116891.57113, -74.94850,
,,,117384.78451, -74.54850,
,,,117877.99789, -72.94850,
,,,118371.21127, -74.94850,
,,,118864.42465, -74.94850,
,,,119357.63803, -74.94850,
,,,119850.85141, -70.14850,
,,,120344.06479, -73.74850,
,,,120837.27817, -74.94850,
,,,121330.49155, -74.94850,
,,,121823.70493, -74.94850,
,,,122316.91831, -74.94850,
,,,122810.13169, -74.54850,
,,,123303.34507, -74.94850,
,,,123796.55845, -74.94850,
,,,124289.77183, -72.94850,
,,,124782.98521, -74.94850,
,,,125276.19859, -74.94850,
,,,125769.41197, -74.94850,
,,,126262.62535, -74.94850,
,,,126755.83873, -74.94850,
,,,127249.05211, -74.94850,
,,,127742.26549, -74.94850,
,,,128235.47887, -74.94850,
,,,128728.69225, -74.94850,
,,,129221.90563, -74.94850,
,,,129715.11901, -70.94850,
,,,130208.33239, -74.94850,
,,,130701.54577, -74.94850,
,,,131194.75915, -74.54850,
,,,131687.97253, -72.14850,
,,,132181.18591, -74.94850,
,,,132674.39929, -74.94850,
,,,133167.61267, -74.94850,
,,,133660.82605, -72.94850,
,,,134154.03943, -74.94850,
,,,134647.25281, -74.94850,
,,,135140.46619, -72.94850,
,,,135633.67957, -74.94850,
,,,136126.89295, -74.94850,
,,,136620.10633, -74.94850,
,,,137113.31971, -74.94850,
,,,137606.53309, -74.94850,
,,,138099.74647, -74.94850,
,,,138592.95985, -74.94850,
,,,139086.17323, -74.94850,
,,,139579.38661, -74.94850,
,,,140072.59999, -74.94850,
,,,140565.81337, -74.54850,
,,,141059.02675, -74.94850,
,,,141552.24013, -74.94850,
,,,142045.45351, -73.74850,
,,,142538.66689, -74.94850,
,,,143031.88027, -74.94850,
,,,143525.09365, -74.94850,
,,,144018.30703, -74.94850,
,,,144511.52041, -74.54850,
,,,145004.73379, -74.94850,
,,,145497.94717, -74.94850,
,,,145991.16055, -74.54850,
,,,146484.37393, -74.94850,
,,,146977.58731, -73.74850,
,,,147470.80069, -74.94850,
,,,147964.01407, -74.94850,
,,,148457.22745, -74.94850,
,,,148950.44083, -74.94850,
,,,149443.65421, -74.94850,
,,,149936.86759, -72.14850,
,,,150430.08097, -74.94850,
,,,150923.29435, -74.94850,
,,,151416.50773, -74.94850,
,,,151909.72111, -74.94850,
,,,152402.93449, -74.54850,
,,,152896.14787, -74.94850,
,,,153389.36125, -74.94850,
,,,153882.57463, -74.94850,
,,,154375.78801, -72.94850,
,,,154869.00139, -74.94850,
,,,155362.21477, -74.94850,
,,,155855.42815, -74.94850,
,,,156348.64153, -74.94850,
,,,156841.85491, -74.94850,
,,,157335.06829, -74.94850,
,,,157828.28167, -74.94850,
,,,158321.49505, -74.94850,
,,,158814.70843, -70.54850,
,,,159307.92181, -74.94850,
,,,159801.13519, -74.94850,
,,,160294.34857, -74.94850,
,,,160787.56195, -73.74850,
,,,161280.77533, -74.94850,
,,,161773.98871, -74.94850,
,,,162267.20209, -74.94850,
,,,162760.41547, -74.54850,
,,,163253.62885, -74.94850,
,,,163746.84223, -74.54850,
,,,164240.05561, -74.94850,
,,,164733.26899, -74.94850,
,,,165226.48237, -74.94850,
,,,165719.69575, -74.94850,
,,,166212.90913, -74.94850,
,,,166706.12251, -74.94850,
,,,167199.33589, -74.94850,
,,,167692.54927, -74.94850,
,,,168185.76265, -74.54850,
,,,168678.97603, -74.94850,
,,,169172.18941, -74.54850,
,,,169665.40279, -74.94850,
,,,170158.61617, -74.94850,
,,,170651.82955, -74.94850,
,,,171145.04293, -73.74850,
,,,171638.25631, -74.94850,
,,,172131.46969, -74.54850,
,,,172624.68307, -74.94850,
,,,173117.89645, -74.94850,
,,,173611.10983, -71.74850,
,,,174104.32321, -74.94850,
,,,174597.53659, -74.94850,
,,,175090.74997, -74.94850,
,,,175583.96335, -74.94850,
,,,176077.17673, -74.94850,
,,,176570.39011, -74.94850,
,,,177063.60349, -74.94850,
,,,177556.81687, -74.94850,
,,,178050.03025, -74.94850,
,,,178543.24363, -74.94850,
,,,179036.45701, -74.94850,
,,,179529.67039, -74.54850,
,,,180022.88377, -74.94850,
,,,180516.09715, -74.94850,
,,,181009.31053, -74.94850,
,,,181502.52391, -74.94850,
,,,181995.73729, -74.94850,
,,,182488.95067, -74.94850,
,,,182982.16405, -74.94850,
,,,183475.37743, -74.94850,
,,,183968.59081, -74.94850,
,,,184461.80419, -74.94850,
,,,184955.01757, -74.94850,
,,,185448.23095, -74.94850,
,,,185941.44433, -74.94850,
,,,186434.65771, -74.94850,
,,,186927.87109, -74.54850,
,,,187421.08447, -74.94850,
,,,187914.29785, -72.94850,
,,,188407.51123, -74.94850,
,,,188900.72461, -74.94850,
,,,189393.93799, -74.94850,
,,,189887.15137, -74.94850,
,,,190380.36475, -74.94850,
,,,190873.57813, -74.94850,
,,,191366.79151, -74.94850,
,,,191860.00489, -74.94850,
,,,192353.21827, -74.94850,
,,,192846.43165, -74.94850,
,,,193339.64503, -74.94850,
,,,193832.85841, -74.94850,
,,,194326.07179, -74.94850,
,,,194819.28517, -74.54850,
,,,195312.49855, -74.94850,
,,,195805.71193, -72.14850,
,,,196298.92531, -72.14850,
,,,196792.13869, -74.94850,
,,,197285.35207, -74.94850,
,,,197778.56545, -72.94850,
,,,198271.77883, -74.94850,
,,,198764.99221, -74.54850,
,,,199258.20559, -74.94850,
,,,199751.41897, -74.94850,
,,,200244.63235, -73.74850,
,,,200737.84573, -71.74850,
,,,201231.05911, -74.94850,
,,,201724.27249, -74.94850,
,,,202217.48587, -74.94850,
,,,202710.69925, -74.94850,
,,,203203.91263, -74.54850,
,,,203697.12601, -74.54850,
,,,204190.33939, -74.94850,
,,,204683.55277, -74.94850,
,,,205176.76615, -74.94850,
,,,205669.97953, -74.94850,
,,,206163.19291, -74.94850,
,,,206656.40629, -74.94850,
,,,207149.61967, -74.94850,
,,,207642.83305, -74.94850,
,,,208136.04643, -74.94850,
,,,208629.25981, -74.94850,
,,,209122.47319, -74.94850,
,,,209615.68657, -74.94850,
,,,210108.89995, -74.94850,
,,,210602.11333, -74.94850,
,,,211095.32671, -74.94850,
,,,211588.54009, -74.94850,
,,,212081.75347, -74.94850,
,,,212574.96685, -74.94850,
,,,213068.18023, -74.94850,
,,,213561.39361, -74.94850,
,,,214054.60699, -74.94850,
,,,214547.82037, -74.94850,
,,,215041.03375, -74.94850,
,,,215534.24713, -74.94850,
,,,216027.46051, -74.94850,
,,,216520.67389, -74.94850,
,,,217013.88727, -74.94850,
,,,217507.10065, -74.94850,
,,,218000.31403, -74.94850,
,,,218493.52741, -74.94850,
,,,218986.74079, -74.94850,
,,,219479.95417, -73.74850,
,,,219973.16755, -74.94850,
,,,220466.38093, -73.74850,
,,,220959.59431, -74.94850,
,,,221452.80769, -74.94850,
,,,221946.02107, -74.94850,
,,,222439.23445, -74.94850,
,,,222932.44783, -74.94850,
,,,223425.66121, -74.94850,
,,,223918.87459, -74.94850,
,,,224412.08797, -72.94850,
,,,224905.30135, -74.94850,
,,,225398.51473, -74.94850,
,,,225891.72811, -74.94850,
,,,226384.94149, -74.94850,
,,,226878.15487, -74.94850,
,,,227371.36825, -74.94850,
,,,227864.58163, -74.94850,
,,,228357.79501, -74.94850,
,,,228851.00839, -74.94850,
,,,229344.22177, -74.94850,
,,,229837.43515, -74.94850,
,,,230330.64853, -74.94850,
,,,230823.86191, -74.94850,
,,,231317.07529, -74.94850,
,,,231810.28867, -74.54850,
,,,232303.50205, -74.94850,
,,,232796.71543, -74.94850,
,,,233289.92881, -74.94850,
,,,233783.14219, -74.94850,
,,,234276.35557, -74.94850,
,,,234769.56895, -74.94850,
,,,235262.78233, -74.94850,
,,,235755.99571, -74.94850,
,,,236249.20909, -74.94850,
,,,236742.42247, -73.74850,
,,,237235.63585, -74.94850,
,,,237728.84923, -72.94850,
,,,238222.06261, -74.94850,
,,,238715.27599, -74.94850,
,,,239208.48937, -74.94850,
,,,239701.70275, -74.94850,
,,,240194.91613, -74.94850,
,,,240688.12951, -74.94850,
,,,241181.34289, -74.94850,
,,,241674.55627, -74.94850,
,,,242167.76965, -74.94850,
,,,242660.98303, -74.94850,
,,,243154.19641, -74.94850,
,,,243647.40979, -74.54850,
,,,244140.62317, -74.94850,
,,,244633.83655, -74.94850,
,,,245127.04993, -74.94850,
,,,245620.26331, -74.94850,
,,,246113.47669, -74.94850,
,,,246606.69007, -73.74850,
,,,247099.90345, -74.94850,
,,,247593.11683, -74.94850,
,,,248086.33021, -74.94850,
,,,248579.54359, -74.94850,
,,,249072.75697, -74.94850,
,,,249565.97035, -74.94850,
,,,250059.18373, -74.54850,
,,,250552.39711, -74.94850,
,,,251045.61049, -74.94850,
,,,251538.82387, -74.94850,
,,,252032.03725, -74.54850,
,,,252525.25063, -74.54850,
,,,253018.46401, -74.94850,
,,,253511.67739, -74.94850,
,,,254004.89077, -74.94850,
,,,254498.10415, -74.94850,
,,,254991.31753, -74.94850,
,,,255484.53091, -74.94850,
,,,255977.74429, -74.94850,
,,,256470.95767, -74.94850,
,,,256964.17105, -74.94850,
,,,257457.38443, -74.94850,
,,,257950.59781, -74.94850,
,,,258443.81119, -74.94850,
,,,258937.02457, -74.94850,
,,,259430.23795, -74.94850,
,,,259923.45133, -74.94850,
,,,260416.66471, -74.94850,
,,,260909.87809, -74.94850,
,,,261403.09147, -74.94850,
,,,261896.30485, -74.94850,
,,,262389.51823, -74.94850,
,,,262882.73161, -74.94850,
,,,263375.94499, -74.94850,
,,,263869.15837, -74.94850,
,,,264362.37175, -74.94850,
,,,264855.58513, -74.94850,
,,,265348.79851, -74.94850,
,,,265842.01189, -74.94850,
,,,266335.22527, -74.94850,
,,,266828.43865, -74.94850,
,,,267321.65203, -74.94850,
,,,267814.86541, -74.94850,
,,,268308.07879, -74.94850,
,,,268801.29217, -74.94850,
,,,269294.50555, -74.94850,
,,,269787.71893, -74.94850,
,,,270280.93231, -74.94850,
,,,270774.14569, -74.94850,
,,,271267.35907, -74.94850,
,,,271760.57245, -74.94850,
,,,272253.78583, -74.94850,
,,,272746.99921, -74.94850,
,,,273240.21259, -74.94850,
,,,273733.42597, -74.94850,
,,,274226.63935, -74.94850,
,,,274719.85273, -74.94850,
,,,275213.06611, -74.94850,
,,,275706.27949, -74.94850,
,,,276199.49287, -74.94850,
,,,276692.70625, -74.94850,
,,,277185.91963, -74.94850,
,,,277679.13301, -74.94850,
,,,278172.34639, -74.94850,
,,,278665.55977, -74.94850,
,,,279158.77315, -74.94850,
,,,279651.98653, -74.94850,
,,,280145.19991, -74.94850,
,,,280638.41329, -74.94850,
,,,281131.62667, -74.94850,
,,,281624.84005, -74.94850,
,,,282118.05343, -74.94850,
,,,282611.26681, -74.94850,
,,,283104.48019, -74.94850,
,,,283597.69357, -74.94850,
,,,284090.90695, -74.94850,
,,,284584.12033, -74.94850,
,,,285077.33371, -74.94850,
,,,285570.54709, -74.94850,
,,,286063.76047, -74.94850,
,,,286556.97385, -74.94850,
,,,287050.18723, -74.54850,
,,,287543.40061, -74.94850,
,,,288036.61399, -74.94850,
,,,288529.82737, -74.94850,
,,,289023.04075, -74.94850,
,,,289516.25413, -74.94850,
,,,290009.46751, -74.94850,
,,,290502.68089, -74.94850,
,,,290995.89427, -74.94850,
,,,291489.10765, -74.94850,
,,,291982.32103, -74.94850,
,,,292475.53441, -74.94850,
,,,292968.74779, -74.94850,
,,,293461.96117, -74.94850,
,,,293955.17455, -74.94850,
,,,294448.38793, -74.54850,
,,,294941.60131, -74.94850,
,,,295434.81469, -74.94850,
,,,295928.02807, -73.74850,
,,,296421.24145, -74.94850,
,,,296914.45483, -74.94850,
,,,297407.66821, -74.94850,
,,,297900.88159, -74.94850,
,,,298394.09497, -74.94850,
,,,298887.30835, -74.94850,
,,,299380.52173, -74.94850,
,,,299873.73511, -74.94850,
,,,300366.94849, -74.94850,
,,,300860.16187, -74.94850,
,,,301353.37525, -74.94850,
,,,301846.58863, -74.54850,
,,,302339.80201, -74.94850,
,,,302833.01539, -74.94850,
,,,303326.22877, -74.94850,
,,,303819.44215, -74.94850,
,,,304312.65553, -74.94850,
,,,304805.86891, -74.94850,
,,,305299.08229, -74.94850,
,,,305792.29567, -74.94850,
,,,306285.50905, -74.94850,
,,,306778.72243, -74.94850,
,,,307271.93581, -74.94850,
,,,307765.14919, -74.94850,
,,,308258.36257, -74.94850,
,,,308751.57595, -74.94850,
,,,309244.78933, -74.94850,
,,,309738.00271, -74.94850,
,,,310231.21609, -74.94850,
,,,310724.42947, -74.94850,
,,,311217.64285, -74.94850,
,,,311710.85623, -74.54850,
,,,312204.06961, -74.94850,
,,,312697.28299, -74.94850,
,,,313190.49637, -74.94850,
,,,313683.70975, -74.94850,
,,,314176.92313, -74.94850,
,,,314670.13651, -74.94850,
,,,315163.34989, -74.94850,
,,,315656.56327, -74.94850,
,,,316149.77665, -74.94850,
,,,316642.99003, -74.94850,
,,,317136.20341, -74.94850,
,,,317629.41679, -74.94850,
,,,318122.63017, -74.94850,
,,,318615.84355, -74.94850,
,,,319109.05693, -74.94850,
,,,319602.27031, -74.94850,
,,,320095.48369, -74.94850,
,,,320588.69707, -74.94850,
,,,321081.91045, -74.94850,
,,,321575.12383, -74.94850,
,,,322068.33721, -74.94850,
,,,322561.55059, -74.94850,
,,,323054.76397, -74.94850,
,,,323547.97735, -74.94850,
,,,324041.19073, -74.94850,
,,,324534.40411, -74.94850,
,,,325027.61749, -74.94850,
,,,325520.83087, -74.94850,
,,,326014.04425, -74.94850,
,,,326507.25763, -74.94850,
,,,327000.47101, -74.94850,
,,,327493.68439, -74.94850,
,,,327986.89777, -74.94850,
,,,328480.11115, -74.94850,
,,,328973.32453, -74.94850,
,,,329466.53791, -74.94850,
,,,329959.75129, -74.94850,
,,,330452.96467, -74.94850,
,,,330946.17805, -74.94850,
,,,331439.39143, -74.94850,
,,,331932.60481, -72.94850,
,,,332425.81819, -74.54850,
,,,332919.03157, -74.94850,
,,,333412.24495, -74.94850,
,,,333905.45833, -74.94850,
,,,334398.67171, -74.94850,
,,,334891.88509, -74.94850,
,,,335385.09847, -74.94850,
,,,335878.31185, -74.94850,
,,,336371.52523, -72.94850,
,,,336864.73861, -74.94850,
,,,337357.95199, -74.94850,
,,,337851.16537, -74.94850,
,,,338344.37875, -74.94850,
,,,338837.59213, -74.94850,
,,,339330.80551, -74.94850,
,,,339824.01889, -74.94850,
,,,340317.23227, -74.94850,
,,,340810.44565, -74.94850,
,,,341303.65903, -74.94850,
,,,341796.87241, -74.94850,
,,,342290.08579, -74.94850,
,,,342783.29917, -74.94850,
,,,343276.51255, -74.94850,
,,,343769.72593, -74.54850,
,,,344262.93931, -74.94850,
,,,344756.15269, -74.94850,
,,,345249.36607, -74.94850,
,,,345742.57945, -74.94850,
,,,346235.79283, -74.94850,
,,,346729.00621, -74.94850,
,,,347222.21959, -74.94850,
,,,347715.43297, -74.94850,
