lab02/data/trash/buried_treasure/ALL0003/F0003CH1.CSV

Record Length,2.500000e+03,,   0.046750000000,   0.03800,
Sample Interval,1.000000e-06,,   0.046751000000,   0.02200,
Trigger Point,-4.675000000000e+04,,   0.046752000000,   0.01000,
,,,   0.046753000000,   0.00800,
,,,   0.046754000000,   0.01600,
,,,   0.046755000000,   0.01800,
Source,CH1,,   0.046756000000,   0.01600,
Vertical Units,V,,   0.046757000000,   0.03000,
Vertical Scale,5.000000e-02,,   0.046758000000,   0.03800,
Vertical Offset,0.000000e+00,,   0.046759000000,   0.03600,
Horizontal Units,s,,   0.046760000000,   0.02200,
Horizontal Scale,2.500000e-04,,   0.046761000000,   0.01600,
Pt Fmt,Y,,   0.046762000000,   0.02800,
Yzero,0.000000e+00,,   0.046763000000,   0.01000,
Probe Atten,1.000000e+01,,   0.046764000000,   0.03200,
Model Number,TBS1052B-EDU,,   0.046765000000,   0.03200,
Serial Number,C050624,,   0.046766000000,   0.02200,
Firmware Version,FV:v4.06,,   0.046767000000,   0.00800,
,,,0.046768000000,   0.00200,
,,,0.046769000000,   0.00000,
,,,0.046770000000,  -0.00400,
,,,0.046771000000,  -0.00600,
,,,0.046772000000,   0.01600,
,,,0.046773000000,   0.01800,
,,,0.046774000000,   0.01200,
,,,0.046775000000,   0.00800,
,,,0.046776000000,  -0.00800,
,,,0.046777000000,  -0.01400,
,,,0.046778000000,  -0.00400,
,,,0.046779000000,   0.00800,
,,,0.046780000000,   0.02800,
,,,0.046781000000,   0.03200,
,,,0.046782000000,   0.00800,
,,,0.046783000000,   0.01400,
,,,0.046784000000,   0.00600,
,,,0.046785000000,  -0.01200,
,,,0.046786000000,   0.00600,
,,,0.046787000000,   0.00600,
,,,0.046788000000,   0.01600,
,,,0.046789000000,   0.02800,
,,,0.046790000000,   0.01800,
,,,0.046791000000,   0.01400,
,,,0.046792000000,   0.01800,
,,,0.046793000000,   0.01400,
,,,0.046794000000,   0.02000,
,,,0.046795000000,   0.01200,
,,,0.046796000000,   0.00800,
,,,0.046797000000,  -0.00200,
,,,0.046798000000,  -0.00200,
,,,0.046799000000,   0.00000,
,,,0.046800000000,   0.00800,
,,,0.046801000000,   0.00800,
,,,0.046802000000,   0.01200,
,,,0.046803000000,   0.00200,
,,,0.046804000000,   0.00400,
,,,0.046805000000,   0.01200,
,,,0.046806000000,   0.00200,
,,,0.046807000000,   0.00800,
,,,0.046808000000,   0.00200,
,,,0.046809000000,  -0.00200,
,,,0.046810000000,  -0.00400,
,,,0.046811000000,  -0.01600,
,,,0.046812000000,  -0.01000,
,,,0.046813000000,   0.01200,
,,,0.046814000000,   0.02200,
,,,0.046815000000,   0.03400,
,,,0.046816000000,   0.03800,
,,,0.046817000000,   0.02400,
,,,0.046818000000,   0.01400,
,,,0.046819000000,   0.01200,
,,,0.046820000000,   0.00800,
,,,0.046821000000,   0.02800,
,,,0.046822000000,   0.04200,
,,,0.046823000000,   0.04000,
,,,0.046824000000,   0.02400,
,,,0.046825000000,   0.03200,
,,,0.046826000000,   0.03400,
,,,0.046827000000,   0.03600,
,,,0.046828000000,   0.02800,
,,,0.046829000000,   0.00800,
,,,0.046830000000,   0.00600,
,,,0.046831000000,  -0.00600,
,,,0.046832000000,  -0.01200,
,,,0.046833000000,  -0.00400,
,,,0.046834000000,   0.00200,
,,,0.046835000000,  -0.00600,
,,,0.046836000000,  -0.01200,
,,,0.046837000000,  -0.00600,
,,,0.046838000000,   0.00200,
,,,0.046839000000,   0.01200,
,,,0.046840000000,   0.02200,
,,,0.046841000000,   0.02000,
,,,0.046842000000,   0.01400,
,,,0.046843000000,   0.02600,
,,,0.046844000000,   0.01000,
,,,0.046845000000,   0.00600,
,,,0.046846000000,   0.00000,
,,,0.046847000000,  -0.02000,
,,,0.046848000000,   0.00400,
,,,0.046849000000,   0.01200,
,,,0.046850000000,   0.01600,
,,,0.046851000000,   0.02200,
,,,0.046852000000,   0.01800,
,,,0.046853000000,   0.01000,
,,,0.046854000000,   0.01600,
,,,0.046855000000,  -0.00200,
,,,0.046856000000,   0.00600,
,,,0.046857000000,   0.01800,
,,,0.046858000000,   0.01000,
,,,0.046859000000,   0.01000,
,,,0.046860000000,   0.01400,
,,,0.046861000000,   0.04000,
,,,0.046862000000,   0.03600,
,,,0.046863000000,   0.03200,
,,,0.046864000000,   0.02400,
,,,0.046865000000,   0.02400,
,,,0.046866000000,   0.02600,
,,,0.046867000000,   0.00800,
,,,0.046868000000,   0.00200,
,,,0.046869000000,   0.00600,
,,,0.046870000000,  -0.01000,
,,,0.046871000000,   0.00800,
,,,0.046872000000,   0.00600,
,,,0.046873000000,   0.00800,
,,,0.046874000000,   0.00400,
,,,0.046875000000,   0.01200,
,,,0.046876000000,   0.00000,
,,,0.046877000000,  -0.00400,
,,,0.046878000000,  -0.01400,
,,,0.046879000000,  -0.00400,
,,,0.046880000000,   0.00400,
,,,0.046881000000,   0.01600,
,,,0.046882000000,   0.02400,
,,,0.046883000000,   0.00800,
,,,0.046884000000,  -0.00400,
,,,0.046885000000,   0.00600,
,,,0.046886000000,   0.00400,
,,,0.046887000000,   0.00600,
,,,0.046888000000,   0.00000,
,,,0.046889000000,   0.00800,
,,,0.046890000000,   0.01400,
,,,0.046891000000,   0.02000,
,,,0.046892000000,   0.02200,
,,,0.046893000000,   0.02800,
,,,0.046894000000,   0.01800,
,,,0.046895000000,   0.00000,
,,,0.046896000000,  -0.01400,
,,,0.046897000000,  -0.01400,
,,,0.046898000000,  -0.00400,
,,,0.046899000000,   0.01400,
,,,0.046900000000,   0.02600,
,,,0.046901000000,   0.03000,
,,,0.046902000000,   0.03000,
,,,0.046903000000,   0.02600,
,,,0.046904000000,   0.03000,
,,,0.046905000000,   0.02400,
,,,0.046906000000,   0.01800,
,,,0.046907000000,   0.00600,
,,,0.046908000000,   0.01400,
,,,0.046909000000,   0.02400,
,,,0.046910000000,   0.01000,
,,,0.046911000000,   0.00400,
,,,0.046912000000,   0.02000,
,,,0.046913000000,   0.02800,
,,,0.046914000000,   0.02200,
,,,0.046915000000,   0.02000,
,,,0.046916000000,   0.01000,
,,,0.046917000000,   0.01600,
,,,0.046918000000,   0.01400,
,,,0.046919000000,   0.01200,
,,,0.046920000000,  -0.00200,
,,,0.046921000000,  -0.01000,
,,,0.046922000000,   0.00600,
,,,0.046923000000,   0.00000,
,,,0.046924000000,   0.02000,
,,,0.046925000000,   0.02800,
,,,0.046926000000,   0.02000,
,,,0.046927000000,   0.02600,
,,,0.046928000000,   0.02000,
,,,0.046929000000,   0.03200,
,,,0.046930000000,   0.04000,
,,,0.046931000000,   0.03200,
,,,0.046932000000,   0.03200,
,,,0.046933000000,   0.02400,
,,,0.046934000000,   0.01200,
,,,0.046935000000,   0.00800,
,,,0.046936000000,   0.01600,
,,,0.046937000000,   0.02000,
,,,0.046938000000,   0.01400,
,,,0.046939000000,   0.00600,
,,,0.046940000000,  -0.00400,
,,,0.046941000000,   0.01000,
,,,0.046942000000,   0.01000,
,,,0.046943000000,   0.00200,
,,,0.046944000000,   0.01000,
,,,0.046945000000,   0.00600,
,,,0.046946000000,   0.00200,
,,,0.046947000000,   0.02200,
,,,0.046948000000,   0.01600,
,,,0.046949000000,   0.00800,
,,,0.046950000000,  -0.01200,
,,,0.046951000000,   0.00800,
,,,0.046952000000,   0.01600,
,,,0.046953000000,   0.02200,
,,,0.046954000000,   0.04000,
,,,0.046955000000,   0.02800,
,,,0.046956000000,   0.01200,
,,,0.046957000000,   0.01400,
,,,0.046958000000,   0.01200,
,,,0.046959000000,   0.01000,
,,,0.046960000000,   0.00200,
,,,0.046961000000,  -0.01000,
,,,0.046962000000,  -0.01000,
,,,0.046963000000,   0.00200,
,,,0.046964000000,   0.01000,
,,,0.046965000000,   0.01200,
,,,0.046966000000,   0.01000,
,,,0.046967000000,   0.02600,
,,,0.046968000000,   0.03400,
,,,0.046969000000,   0.02800,
,,,0.046970000000,  -0.00200,
,,,0.046971000000,  -0.00200,
,,,0.046972000000,  -0.00200,
,,,0.046973000000,  -0.01000,
,,,0.046974000000,  -0.00200,
,,,0.046975000000,   0.00600,
,,,0.046976000000,   0.01400,
,,,0.046977000000,   0.02200,
,,,0.046978000000,   0.02600,
,,,0.046979000000,   0.02200,
,,,0.046980000000,   0.03000,
,,,0.046981000000,   0.02000,
,,,0.046982000000,   0.00800,
,,,0.046983000000,   0.02600,
,,,0.046984000000,   0.01600,
,,,0.046985000000,   0.01400,
,,,0.046986000000,   0.00200,
,,,0.046987000000,   0.03400,
,,,0.046988000000,   0.05200,
,,,0.046989000000,   0.05600,
,,,0.046990000000,   0.03400,
,,,0.046991000000,   0.02800,
,,,0.046992000000,   0.02000,
,,,0.046993000000,   0.04000,
,,,0.046994000000,   0.03400,
,,,0.046995000000,   0.02600,
,,,0.046996000000,   0.00800,
,,,0.046997000000,   0.00000,
,,,0.046998000000,   0.00600,
,,,0.046999000000,   0.01400,
,,,0.047000000000,   0.01400,
,,,0.047001000000,   0.01400,
,,,0.047002000000,   0.01400,
,,,0.047003000000,   0.01600,
,,,0.047004000000,   0.03000,
,,,0.047005000000,   0.01200,
,,,0.047006000000,  -0.00200,
,,,0.047007000000,   0.00600,
,,,0.047008000000,   0.00400,
,,,0.047009000000,   0.01800,
,,,0.047010000000,   0.00400,
,,,0.047011000000,  -0.01200,
,,,0.047012000000,  -0.01600,
,,,0.047013000000,  -0.01800,
,,,0.047014000000,   0.00600,
,,,0.047015000000,   0.01600,
,,,0.047016000000,   0.01000,
,,,0.047017000000,   0.00000,
,,,0.047018000000,   0.01400,
,,,0.047019000000,   0.03200,
,,,0.047020000000,   0.04200,
,,,0.047021000000,   0.02600,
,,,0.047022000000,   0.00800,
,,,0.047023000000,   0.00200,
,,,0.047024000000,   0.00800,
,,,0.047025000000,   0.00800,
,,,0.047026000000,   0.02400,
,,,0.047027000000,   0.03000,
,,,0.047028000000,   0.01000,
,,,0.047029000000,   0.00600,
,,,0.047030000000,   0.01000,
,,,0.047031000000,   0.01600,
,,,0.047032000000,   0.01200,
,,,0.047033000000,   0.00600,
,,,0.047034000000,   0.00000,
,,,0.047035000000,   0.01800,
,,,0.047036000000,   0.01000,
,,,0.047037000000,   0.01800,
,,,0.047038000000,   0.01000,
,,,0.047039000000,  -0.00200,
,,,0.047040000000,   0.00600,
,,,0.047041000000,   0.01200,
,,,0.047042000000,   0.00800,
,,,0.047043000000,   0.00600,
,,,0.047044000000,   0.00200,
,,,0.047045000000,   0.00800,
,,,0.047046000000,  -0.00200,
,,,0.047047000000,   0.00200,
,,,0.047048000000,   0.00600,
,,,0.047049000000,   0.01200,
,,,0.047050000000,   0.01600,
,,,0.047051000000,   0.05200,
,,,0.047052000000,   0.04000,
,,,0.047053000000,   0.02000,
,,,0.047054000000,   0.00600,
,,,0.047055000000,  -0.00200,
,,,0.047056000000,  -0.00200,
,,,0.047057000000,  -0.01000,
,,,0.047058000000,   0.01200,
,,,0.047059000000,   0.02000,
,,,0.047060000000,   0.00800,
,,,0.047061000000,   0.01800,
,,,0.047062000000,   0.00600,
,,,0.047063000000,  -0.02000,
,,,0.047064000000,  -0.01000,
,,,0.047065000000,  -0.01400,
,,,0.047066000000,  -0.00800,
,,,0.047067000000,   0.00800,
,,,0.047068000000,   0.01200,
,,,0.047069000000,   0.01000,
,,,0.047070000000,   0.01000,
,,,0.047071000000,   0.02400,
,,,0.047072000000,   0.02200,
,,,0.047073000000,   0.02600,
,,,0.047074000000,   0.03600,
,,,0.047075000000,   0.03400,
,,,0.047076000000,   0.03200,
,,,0.047077000000,   0.01400,
,,,0.047078000000,   0.01400,
,,,0.047079000000,   0.01600,
,,,0.047080000000,   0.02200,
,,,0.047081000000,   0.01000,
,,,0.047082000000,   0.01200,
,,,0.047083000000,   0.01200,
,,,0.047084000000,   0.01200,
,,,0.047085000000,   0.02800,
,,,0.047086000000,   0.04000,
,,,0.047087000000,   0.02800,
,,,0.047088000000,   0.01400,
,,,0.047089000000,  -0.00200,
,,,0.047090000000,  -0.00200,
,,,0.047091000000,  -0.01200,
,,,0.047092000000,  -0.00600,
,,,0.047093000000,   0.00800,
,,,0.047094000000,   0.03200,
,,,0.047095000000,   0.03600,
,,,0.047096000000,   0.02400,
,,,0.047097000000,   0.02400,
,,,0.047098000000,   0.02600,
,,,0.047099000000,   0.03200,
,,,0.047100000000,   0.03200,
,,,0.047101000000,   0.03000,
,,,0.047102000000,   0.01800,
,,,0.047103000000,   0.01400,
,,,0.047104000000,   0.00600,
,,,0.047105000000,   0.01000,
,,,0.047106000000,   0.01400,
,,,0.047107000000,   0.00800,
,,,0.047108000000,   0.02000,
,,,0.047109000000,   0.01800,
,,,0.047110000000,   0.02800,
,,,0.047111000000,   0.04200,
,,,0.047112000000,   0.03200,
,,,0.047113000000,   0.01800,
,,,0.047114000000,   0.01400,
,,,0.047115000000,   0.00600,
,,,0.047116000000,   0.01400,
,,,0.047117000000,   0.01000,
,,,0.047118000000,   0.00800,
,,,0.047119000000,  -0.01000,
,,,0.047120000000,  -0.01800,
,,,0.047121000000,  -0.00400,
,,,0.047122000000,   0.00800,
,,,0.047123000000,   0.01000,
,,,0.047124000000,   0.00400,
,,,0.047125000000,   0.00800,
,,,0.047126000000,   0.02200,
,,,0.047127000000,   0.01800,
,,,0.047128000000,   0.01400,
,,,0.047129000000,   0.02200,
,,,0.047130000000,   0.03200,
,,,0.047131000000,   0.01400,
,,,0.047132000000,  -0.00200,
,,,0.047133000000,   0.00800,
,,,0.047134000000,   0.01000,
,,,0.047135000000,   0.01600,
,,,0.047136000000,   0.01000,
,,,0.047137000000,   0.00000,
,,,0.047138000000,  -0.00400,
,,,0.047139000000,  -0.00800,
,,,0.047140000000,   0.01600,
,,,0.047141000000,   0.03600,
,,,0.047142000000,   0.02000,
,,,0.047143000000,   0.01600,
,,,0.047144000000,   0.01200,
,,,0.047145000000,  -0.00200,
,,,0.047146000000,   0.02800,
,,,0.047147000000,   0.02600,
,,,0.047148000000,   0.01800,
,,,0.047149000000,   0.02400,
,,,0.047150000000,   0.02200,
,,,0.047151000000,   0.01400,
,,,0.047152000000,   0.01800,
,,,0.047153000000,   0.01400,
,,,0.047154000000,   0.00600,
,,,0.047155000000,   0.00800,
,,,0.047156000000,   0.01800,
,,,0.047157000000,   0.00200,
,,,0.047158000000,   0.01600,
,,,0.047159000000,   0.00000,
,,,0.047160000000,   0.00000,
,,,0.047161000000,   0.01000,
,,,0.047162000000,   0.01600,
,,,0.047163000000,   0.00800,
,,,0.047164000000,   0.01200,
,,,0.047165000000,   0.01000,
,,,0.047166000000,   0.00200,
,,,0.047167000000,   0.01400,
,,,0.047168000000,   0.03200,
,,,0.047169000000,   0.02400,
,,,0.047170000000,   0.00600,
,,,0.047171000000,   0.01000,
,,,0.047172000000,   0.00600,
,,,0.047173000000,  -0.00400,
,,,0.047174000000,  -0.00400,
,,,0.047175000000,   0.00200,
,,,0.047176000000,   0.01000,
,,,0.047177000000,  -0.00200,
,,,0.047178000000,   0.00200,
,,,0.047179000000,   0.00600,
,,,0.047180000000,  -0.00200,
,,,0.047181000000,   0.00200,
,,,0.047182000000,   0.00400,
,,,0.047183000000,   0.01400,
,,,0.047184000000,   0.02800,
,,,0.047185000000,   0.02600,
,,,0.047186000000,   0.02200,
,,,0.047187000000,   0.04000,
,,,0.047188000000,   0.01600,
,,,0.047189000000,  -0.00800,
,,,0.047190000000,  -0.01000,
,,,0.047191000000,  -0.00400,
,,,0.047192000000,  -0.00600,
,,,0.047193000000,  -0.00200,
,,,0.047194000000,  -0.00600,
,,,0.047195000000,   0.01200,
,,,0.047196000000,   0.02600,
,,,0.047197000000,   0.02200,
,,,0.047198000000,   0.00600,
,,,0.047199000000,  -0.00400,
,,,0.047200000000,  -0.01200,
,,,0.047201000000,  -0.00200,
,,,0.047202000000,   0.00600,
,,,0.047203000000,   0.01800,
,,,0.047204000000,   0.01400,
,,,0.047205000000,   0.00400,
,,,0.047206000000,  -0.00200,
,,,0.047207000000,  -0.00600,
,,,0.047208000000,  -0.02000,
,,,0.047209000000,  -0.03000,
,,,0.047210000000,  -0.00400,
,,,0.047211000000,   0.02200,
,,,0.047212000000,   0.03400,
,,,0.047213000000,   0.02600,
,,,0.047214000000,   0.02600,
,,,0.047215000000,   0.01000,
,,,0.047216000000,  -0.00400,
,,,0.047217000000,  -0.00800,
,,,0.047218000000,   0.00400,
,,,0.047219000000,   0.00400,
,,,0.047220000000,   0.03400,
,,,0.047221000000,   0.02000,
,,,0.047222000000,   0.03200,
,,,0.047223000000,   0.02400,
,,,0.047224000000,  -0.00400,
,,,0.047225000000,  -0.01600,
,,,0.047226000000,  -0.01400,
,,,0.047227000000,  -0.01000,
,,,0.047228000000,  -0.00400,
,,,0.047229000000,   0.00000,
,,,0.047230000000,   0.00400,
,,,0.047231000000,   0.00400,
,,,0.047232000000,   0.00000,
,,,0.047233000000,  -0.00200,
,,,0.047234000000,  -0.00600,
,,,0.047235000000,   0.01000,
,,,0.047236000000,   0.02600,
,,,0.047237000000,   0.03000,
,,,0.047238000000,   0.00800,
,,,0.047239000000,  -0.01600,
,,,0.047240000000,  -0.00600,
,,,0.047241000000,  -0.00200,
,,,0.047242000000,   0.02600,
,,,0.047243000000,   0.03600,
,,,0.047244000000,   0.03800,
,,,0.047245000000,   0.01000,
,,,0.047246000000,  -0.01000,
,,,0.047247000000,  -0.02000,
,,,0.047248000000,   0.00200,
,,,0.047249000000,   0.02400,
,,,0.047250000000,   0.02000,
,,,0.047251000000,   0.00000,
,,,0.047252000000,  -0.01600,
,,,0.047253000000,  -0.02400,
,,,0.047254000000,  -0.01800,
,,,0.047255000000,  -0.01200,
,,,0.047256000000,   0.02200,
,,,0.047257000000,   0.03400,
,,,0.047258000000,   0.01800,
,,,0.047259000000,   0.01200,
,,,0.047260000000,   0.01200,
,,,0.047261000000,   0.02000,
,,,0.047262000000,   0.00600,
,,,0.047263000000,   0.00600,
,,,0.047264000000,   0.00600,
,,,0.047265000000,   0.00200,
,,,0.047266000000,   0.00400,
,,,0.047267000000,   0.00000,
,,,0.047268000000,   0.01400,
,,,0.047269000000,   0.01600,
,,,0.047270000000,   0.01400,
,,,0.047271000000,   0.00000,
,,,0.047272000000,   0.00400,
,,,0.047273000000,   0.00000,
,,,0.047274000000,   0.00600,
,,,0.047275000000,   0.00200,
,,,0.047276000000,   0.02400,
,,,0.047277000000,   0.03600,
,,,0.047278000000,   0.03800,
,,,0.047279000000,   0.02000,
,,,0.047280000000,   0.02600,
,,,0.047281000000,   0.02000,
,,,0.047282000000,   0.02400,
,,,0.047283000000,   0.02600,
,,,0.047284000000,   0.01200,
,,,0.047285000000,   0.01200,
,,,0.047286000000,   0.02000,
,,,0.047287000000,   0.02600,
,,,0.047288000000,   0.02600,
,,,0.047289000000,   0.01400,
,,,0.047290000000,  -0.00800,
,,,0.047291000000,   0.00000,
,,,0.047292000000,  -0.01400,
,,,0.047293000000,  -0.02600,
,,,0.047294000000,  -0.00600,
,,,0.047295000000,   0.00200,
,,,0.047296000000,  -0.00800,
,,,0.047297000000,  -0.01400,
,,,0.047298000000,  -0.01200,
,,,0.047299000000,   0.00000,
,,,0.047300000000,   0.00600,
,,,0.047301000000,   0.00400,
,,,0.047302000000,   0.01200,
,,,0.047303000000,  -0.00600,
,,,0.047304000000,  -0.00400,
,,,0.047305000000,   0.01000,
,,,0.047306000000,  -0.00600,
,,,0.047307000000,  -0.01800,
,,,0.047308000000,  -0.01400,
,,,0.047309000000,   0.01800,
,,,0.047310000000,   0.02800,
,,,0.047311000000,   0.01600,
,,,0.047312000000,   0.01400,
,,,0.047313000000,   0.01400,
,,,0.047314000000,  -0.00200,
,,,0.047315000000,   0.00800,
,,,0.047316000000,   0.01800,
,,,0.047317000000,   0.02400,
,,,0.047318000000,   0.01200,
,,,0.047319000000,   0.02000,
,,,0.047320000000,   0.01600,
,,,0.047321000000,   0.00400,
,,,0.047322000000,   0.00800,
,,,0.047323000000,   0.01400,
,,,0.047324000000,   0.01800,
,,,0.047325000000,   0.01400,
,,,0.047326000000,  -0.00600,
,,,0.047327000000,  -0.00800,
,,,0.047328000000,  -0.01000,
,,,0.047329000000,   0.00400,
,,,0.047330000000,  -0.00800,
,,,0.047331000000,   0.00200,
,,,0.047332000000,   0.01400,
,,,0.047333000000,  -0.00200,
,,,0.047334000000,   0.00600,
,,,0.047335000000,   0.01200,
,,,0.047336000000,   0.02800,
,,,0.047337000000,   0.02800,
,,,0.047338000000,   0.01800,
,,,0.047339000000,   0.02800,
,,,0.047340000000,   0.01800,
,,,0.047341000000,   0.00400,
,,,0.047342000000,   0.00400,
,,,0.047343000000,   0.01800,
,,,0.047344000000,   0.00200,
,,,0.047345000000,   0.00000,
,,,0.047346000000,   0.01800,
,,,0.047347000000,   0.05000,
,,,0.047348000000,   0.04200,
,,,0.047349000000,   0.01800,
,,,0.047350000000,   0.00200,
,,,0.047351000000,  -0.01400,
,,,0.047352000000,  -0.02200,
,,,0.047353000000,  -0.01600,
,,,0.047354000000,   0.00200,
,,,0.047355000000,   0.03200,
,,,0.047356000000,   0.03400,
,,,0.047357000000,   0.02000,
,,,0.047358000000,   0.00000,
,,,0.047359000000,  -0.01200,
,,,0.047360000000,  -0.01000,
,,,0.047361000000,  -0.01200,
,,,0.047362000000,  -0.00400,
,,,0.047363000000,  -0.00600,
,,,0.047364000000,  -0.01800,
,,,0.047365000000,  -0.00400,
,,,0.047366000000,   0.00200,
,,,0.047367000000,   0.02200,
,,,0.047368000000,   0.03200,
,,,0.047369000000,   0.02800,
,,,0.047370000000,   0.01000,
,,,0.047371000000,   0.00400,
,,,0.047372000000,   0.00200,
,,,0.047373000000,   0.00800,
,,,0.047374000000,   0.01600,
,,,0.047375000000,   0.01600,
,,,0.047376000000,   0.02000,
,,,0.047377000000,   0.00400,
,,,0.047378000000,  -0.00800,
,,,0.047379000000,  -0.00400,
,,,0.047380000000,  -0.01000,
,,,0.047381000000,   0.01200,
,,,0.047382000000,   0.01400,
,,,0.047383000000,   0.02600,
,,,0.047384000000,   0.04200,
,,,0.047385000000,   0.03000,
,,,0.047386000000,   0.02000,
,,,0.047387000000,   0.02600,
,,,0.047388000000,   0.03600,
,,,0.047389000000,   0.04000,
,,,0.047390000000,   0.03800,
,,,0.047391000000,   0.02000,
,,,0.047392000000,   0.01000,
,,,0.047393000000,   0.01400,
,,,0.047394000000,   0.01000,
,,,0.047395000000,   0.01600,
,,,0.047396000000,   0.01200,
,,,0.047397000000,  -0.00800,
,,,0.047398000000,  -0.01400,
,,,0.047399000000,  -0.00400,
,,,0.047400000000,   0.01000,
,,,0.047401000000,   0.00400,
,,,0.047402000000,   0.00400,
,,,0.047403000000,   0.00600,
