lab02/data/part_1/oscilloscope_sin_2/F0001CH1.CSV

Record Length,2.500000e+03,,  -0.001930000000,   0.09600,
Sample Interval,1.000000e-06,,  -0.001929000000,   0.10400,
Trigger Point,1.930000000000e+03,,  -0.001928000000,   0.10400,
,,,  -0.001927000000,   0.10400,
,,,  -0.001926000000,   0.11200,
,,,  -0.001925000000,   0.11200,
Source,CH1,,  -0.001924000000,   0.12000,
Vertical Units,V,,  -0.001923000000,   0.12000,
Vertical Scale,2.000000e-01,,  -0.001922000000,   0.12800,
Vertical Offset,0.000000e+00,,  -0.001921000000,   0.12800,
Horizontal Units,s,,  -0.001920000000,   0.12800,
Horizontal Scale,2.500000e-04,,  -0.001919000000,   0.13600,
Pt Fmt,Y,,  -0.001918000000,   0.13600,
Yzero,0.000000e+00,,  -0.001917000000,   0.13600,
Probe Atten,1.000000e+00,,  -0.001916000000,   0.14400,
Model Number,TBS1052B-EDU,,  -0.001915000000,   0.14400,
Serial Number,C050624,,  -0.001914000000,   0.15200,
Firmware Version,FV:v4.06,,  -0.001913000000,   0.15200,
,,,-00.001912000000,   0.16000,
,,,-00.001911000000,   0.16000,
,,,-00.001910000000,   0.16800,
,,,-00.001909000000,   0.16800,
,,,-00.001908000000,   0.16800,
,,,-00.001907000000,   0.17600,
,,,-00.001906000000,   0.17600,
,,,-00.001905000000,   0.17600,
,,,-00.001904000000,   0.18400,
,,,-00.001903000000,   0.18400,
,,,-00.001902000000,   0.19200,
,,,-00.001901000000,   0.19200,
,,,-00.001900000000,   0.19200,
,,,-00.001899000000,   0.20000,
,,,-00.001898000000,   0.20000,
,,,-00.001897000000,   0.20800,
,,,-00.001896000000,   0.20800,
,,,-00.001895000000,   0.20800,
,,,-00.001894000000,   0.21600,
,,,-00.001893000000,   0.21600,
,,,-00.001892000000,   0.21600,
,,,-00.001891000000,   0.22400,
,,,-00.001890000000,   0.22400,
,,,-00.001889000000,   0.23200,
,,,-00.001888000000,   0.23200,
,,,-00.001887000000,   0.23200,
,,,-00.001886000000,   0.23200,
,,,-00.001885000000,   0.24000,
,,,-00.001884000000,   0.24800,
,,,-00.001883000000,   0.24800,
,,,-00.001882000000,   0.24800,
,,,-00.001881000000,   0.24800,
,,,-00.001880000000,   0.25600,
,,,-00.001879000000,   0.26400,
,,,-00.001878000000,   0.26400,
,,,-00.001877000000,   0.26400,
,,,-00.001876000000,   0.26400,
,,,-00.001875000000,   0.27200,
,,,-00.001874000000,   0.27200,
,,,-00.001873000000,   0.27200,
,,,-00.001872000000,   0.27200,
,,,-00.001871000000,   0.28000,
,,,-00.001870000000,   0.28000,
,,,-00.001869000000,   0.28800,
,,,-00.001868000000,   0.28800,
,,,-00.001867000000,   0.28800,
,,,-00.001866000000,   0.29600,
,,,-00.001865000000,   0.29600,
,,,-00.001864000000,   0.30400,
,,,-00.001863000000,   0.30400,
,,,-00.001862000000,   0.30400,
,,,-00.001861000000,   0.30400,
,,,-00.001860000000,   0.30400,
,,,-00.001859000000,   0.31200,
,,,-00.001858000000,   0.31200,
,,,-00.001857000000,   0.32000,
,,,-00.001856000000,   0.32000,
,,,-00.001855000000,   0.32000,
,,,-00.001854000000,   0.32000,
,,,-00.001853000000,   0.32800,
,,,-00.001852000000,   0.32800,
,,,-00.001851000000,   0.33600,
,,,-00.001850000000,   0.33600,
,,,-00.001849000000,   0.33600,
,,,-00.001848000000,   0.34400,
,,,-00.001847000000,   0.34400,
,,,-00.001846000000,   0.34400,
,,,-00.001845000000,   0.34400,
,,,-00.001844000000,   0.34400,
,,,-00.001843000000,   0.35200,
,,,-00.001842000000,   0.36000,
,,,-00.001841000000,   0.36000,
,,,-00.001840000000,   0.36000,
,,,-00.001839000000,   0.36000,
,,,-00.001838000000,   0.36000,
,,,-00.001837000000,   0.36800,
,,,-00.001836000000,   0.36800,
,,,-00.001835000000,   0.36800,
,,,-00.001834000000,   0.36800,
,,,-00.001833000000,   0.37600,
,,,-00.001832000000,   0.37600,
,,,-00.001831000000,   0.37600,
,,,-00.001830000000,   0.37600,
,,,-00.001829000000,   0.38400,
,,,-00.001828000000,   0.38400,
,,,-00.001827000000,   0.38400,
,,,-00.001826000000,   0.39200,
,,,-00.001825000000,   0.39200,
,,,-00.001824000000,   0.40000,
,,,-00.001823000000,   0.40000,
,,,-00.001822000000,   0.40000,
,,,-00.001821000000,   0.40000,
,,,-00.001820000000,   0.40000,
,,,-00.001819000000,   0.40800,
,,,-00.001818000000,   0.40800,
,,,-00.001817000000,   0.40800,
,,,-00.001816000000,   0.40800,
,,,-00.001815000000,   0.41600,
,,,-00.001814000000,   0.41600,
,,,-00.001813000000,   0.41600,
,,,-00.001812000000,   0.41600,
,,,-00.001811000000,   0.41600,
,,,-00.001810000000,   0.42400,
,,,-00.001809000000,   0.42400,
,,,-00.001808000000,   0.42400,
,,,-00.001807000000,   0.43200,
,,,-00.001806000000,   0.43200,
,,,-00.001805000000,   0.43200,
,,,-00.001804000000,   0.44000,
,,,-00.001803000000,   0.43200,
,,,-00.001802000000,   0.44000,
,,,-00.001801000000,   0.44000,
,,,-00.001800000000,   0.44000,
,,,-00.001799000000,   0.44000,
,,,-00.001798000000,   0.44000,
,,,-00.001797000000,   0.44800,
,,,-00.001796000000,   0.44800,
,,,-00.001795000000,   0.44800,
,,,-00.001794000000,   0.44800,
,,,-00.001793000000,   0.44800,
,,,-00.001792000000,   0.45600,
,,,-00.001791000000,   0.45600,
,,,-00.001790000000,   0.45600,
,,,-00.001789000000,   0.45600,
,,,-00.001788000000,   0.45600,
,,,-00.001787000000,   0.45600,
,,,-00.001786000000,   0.46400,
,,,-00.001785000000,   0.46400,
,,,-00.001784000000,   0.46400,
,,,-00.001783000000,   0.46400,
,,,-00.001782000000,   0.46400,
,,,-00.001781000000,   0.47200,
,,,-00.001780000000,   0.46400,
,,,-00.001779000000,   0.47200,
,,,-00.001778000000,   0.47200,
,,,-00.001777000000,   0.47200,
,,,-00.001776000000,   0.47200,
,,,-00.001775000000,   0.47200,
,,,-00.001774000000,   0.48000,
,,,-00.001773000000,   0.48000,
,,,-00.001772000000,   0.48000,
,,,-00.001771000000,   0.48000,
,,,-00.001770000000,   0.48000,
,,,-00.001769000000,   0.48000,
,,,-00.001768000000,   0.48800,
,,,-00.001767000000,   0.48800,
,,,-00.001766000000,   0.48800,
,,,-00.001765000000,   0.48800,
,,,-00.001764000000,   0.48800,
,,,-00.001763000000,   0.48800,
,,,-00.001762000000,   0.48800,
,,,-00.001761000000,   0.48800,
,,,-00.001760000000,   0.49600,
,,,-00.001759000000,   0.49600,
,,,-00.001758000000,   0.49600,
,,,-00.001757000000,   0.49600,
,,,-00.001756000000,   0.49600,
,,,-00.001755000000,   0.49600,
,,,-00.001754000000,   0.49600,
,,,-00.001753000000,   0.49600,
,,,-00.001752000000,   0.49600,
,,,-00.001751000000,   0.49600,
,,,-00.001750000000,   0.49600,
,,,-00.001749000000,   0.49600,
,,,-00.001748000000,   0.49600,
,,,-00.001747000000,   0.49600,
,,,-00.001746000000,   0.50400,
,,,-00.001745000000,   0.50400,
,,,-00.001744000000,   0.50400,
,,,-00.001743000000,   0.49600,
,,,-00.001742000000,   0.49600,
,,,-00.001741000000,   0.50400,
,,,-00.001740000000,   0.51200,
,,,-00.001739000000,   0.50400,
,,,-00.001738000000,   0.50400,
,,,-00.001737000000,   0.50400,
,,,-00.001736000000,   0.50400,
,,,-00.001735000000,   0.50400,
,,,-00.001734000000,   0.50400,
,,,-00.001733000000,   0.51200,
,,,-00.001732000000,   0.50400,
,,,-00.001731000000,   0.51200,
,,,-00.001730000000,   0.51200,
,,,-00.001729000000,   0.51200,
,,,-00.001728000000,   0.50400,
,,,-00.001727000000,   0.50400,
,,,-00.001726000000,   0.51200,
,,,-00.001725000000,   0.50400,
,,,-00.001724000000,   0.51200,
,,,-00.001723000000,   0.50400,
,,,-00.001722000000,   0.51200,
,,,-00.001721000000,   0.51200,
,,,-00.001720000000,   0.50400,
,,,-00.001719000000,   0.51200,
,,,-00.001718000000,   0.51200,
,,,-00.001717000000,   0.51200,
,,,-00.001716000000,   0.51200,
,,,-00.001715000000,   0.51200,
,,,-00.001714000000,   0.51200,
,,,-00.001713000000,   0.50400,
,,,-00.001712000000,   0.51200,
,,,-00.001711000000,   0.51200,
,,,-00.001710000000,   0.51200,
,,,-00.001709000000,   0.51200,
,,,-00.001708000000,   0.51200,
,,,-00.001707000000,   0.51200,
,,,-00.001706000000,   0.51200,
,,,-00.001705000000,   0.50400,
,,,-00.001704000000,   0.51200,
,,,-00.001703000000,   0.50400,
,,,-00.001702000000,   0.50400,
,,,-00.001701000000,   0.50400,
,,,-00.001700000000,   0.50400,
,,,-00.001699000000,   0.50400,
,,,-00.001698000000,   0.50400,
,,,-00.001697000000,   0.50400,
,,,-00.001696000000,   0.50400,
,,,-00.001695000000,   0.50400,
,,,-00.001694000000,   0.50400,
,,,-00.001693000000,   0.50400,
,,,-00.001692000000,   0.50400,
,,,-00.001691000000,   0.50400,
,,,-00.001690000000,   0.50400,
,,,-00.001689000000,   0.50400,
,,,-00.001688000000,   0.49600,
,,,-00.001687000000,   0.49600,
,,,-00.001686000000,   0.49600,
,,,-00.001685000000,   0.49600,
,,,-00.001684000000,   0.49600,
,,,-00.001683000000,   0.49600,
,,,-00.001682000000,   0.49600,
,,,-00.001681000000,   0.49600,
,,,-00.001680000000,   0.49600,
,,,-00.001679000000,   0.49600,
,,,-00.001678000000,   0.49600,
,,,-00.001677000000,   0.49600,
,,,-00.001676000000,   0.49600,
,,,-00.001675000000,   0.49600,
,,,-00.001674000000,   0.48800,
,,,-00.001673000000,   0.49600,
,,,-00.001672000000,   0.49600,
,,,-00.001671000000,   0.49600,
,,,-00.001670000000,   0.48800,
,,,-00.001669000000,   0.48800,
,,,-00.001668000000,   0.48800,
,,,-00.001667000000,   0.48800,
,,,-00.001666000000,   0.48800,
,,,-00.001665000000,   0.48000,
,,,-00.001664000000,   0.48000,
,,,-00.001663000000,   0.48000,
,,,-00.001662000000,   0.48000,
,,,-00.001661000000,   0.48000,
,,,-00.001660000000,   0.48000,
,,,-00.001659000000,   0.47200,
,,,-00.001658000000,   0.47200,
,,,-00.001657000000,   0.47200,
,,,-00.001656000000,   0.47200,
,,,-00.001655000000,   0.47200,
,,,-00.001654000000,   0.47200,
,,,-00.001653000000,   0.47200,
,,,-00.001652000000,   0.46400,
,,,-00.001651000000,   0.46400,
,,,-00.001650000000,   0.46400,
,,,-00.001649000000,   0.46400,
,,,-00.001648000000,   0.45600,
,,,-00.001647000000,   0.45600,
,,,-00.001646000000,   0.45600,
,,,-00.001645000000,   0.45600,
,,,-00.001644000000,   0.45600,
,,,-00.001643000000,   0.45600,
,,,-00.001642000000,   0.45600,
,,,-00.001641000000,   0.44800,
,,,-00.001640000000,   0.44800,
,,,-00.001639000000,   0.45600,
,,,-00.001638000000,   0.44800,
,,,-00.001637000000,   0.44800,
,,,-00.001636000000,   0.44800,
,,,-00.001635000000,   0.44000,
,,,-00.001634000000,   0.44000,
,,,-00.001633000000,   0.44000,
,,,-00.001632000000,   0.44000,
,,,-00.001631000000,   0.44000,
,,,-00.001630000000,   0.43200,
,,,-00.001629000000,   0.43200,
,,,-00.001628000000,   0.43200,
,,,-00.001627000000,   0.43200,
,,,-00.001626000000,   0.42400,
,,,-00.001625000000,   0.43200,
,,,-00.001624000000,   0.41600,
,,,-00.001623000000,   0.42400,
,,,-00.001622000000,   0.41600,
,,,-00.001621000000,   0.41600,
,,,-00.001620000000,   0.41600,
,,,-00.001619000000,   0.41600,
,,,-00.001618000000,   0.41600,
,,,-00.001617000000,   0.41600,
,,,-00.001616000000,   0.40800,
,,,-00.001615000000,   0.40800,
,,,-00.001614000000,   0.40800,
,,,-00.001613000000,   0.40000,
,,,-00.001612000000,   0.40000,
,,,-00.001611000000,   0.40000,
,,,-00.001610000000,   0.40000,
,,,-00.001609000000,   0.39200,
,,,-00.001608000000,   0.39200,
,,,-00.001607000000,   0.38400,
,,,-00.001606000000,   0.38400,
,,,-00.001605000000,   0.38400,
,,,-00.001604000000,   0.38400,
,,,-00.001603000000,   0.37600,
,,,-00.001602000000,   0.37600,
,,,-00.001601000000,   0.37600,
,,,-00.001600000000,   0.37600,
,,,-00.001599000000,   0.37600,
,,,-00.001598000000,   0.36800,
,,,-00.001597000000,   0.36800,
,,,-00.001596000000,   0.36000,
,,,-00.001595000000,   0.36000,
,,,-00.001594000000,   0.36000,
,,,-00.001593000000,   0.36000,
,,,-00.001592000000,   0.36000,
,,,-00.001591000000,   0.35200,
,,,-00.001590000000,   0.35200,
,,,-00.001589000000,   0.35200,
,,,-00.001588000000,   0.34400,
,,,-00.001587000000,   0.34400,
,,,-00.001586000000,   0.34400,
,,,-00.001585000000,   0.33600,
,,,-00.001584000000,   0.33600,
,,,-00.001583000000,   0.33600,
,,,-00.001582000000,   0.32800,
,,,-00.001581000000,   0.32800,
,,,-00.001580000000,   0.32000,
,,,-00.001579000000,   0.32000,
,,,-00.001578000000,   0.32000,
,,,-00.001577000000,   0.32000,
,,,-00.001576000000,   0.31200,
,,,-00.001575000000,   0.31200,
,,,-00.001574000000,   0.30400,
,,,-00.001573000000,   0.30400,
,,,-00.001572000000,   0.30400,
,,,-00.001571000000,   0.30400,
,,,-00.001570000000,   0.30400,
,,,-00.001569000000,   0.29600,
,,,-00.001568000000,   0.29600,
,,,-00.001567000000,   0.29600,
,,,-00.001566000000,   0.28800,
,,,-00.001565000000,   0.28800,
,,,-00.001564000000,   0.28800,
,,,-00.001563000000,   0.28000,
,,,-00.001562000000,   0.27200,
,,,-00.001561000000,   0.27200,
,,,-00.001560000000,   0.27200,
,,,-00.001559000000,   0.27200,
,,,-00.001558000000,   0.26400,
,,,-00.001557000000,   0.26400,
,,,-00.001556000000,   0.25600,
,,,-00.001555000000,   0.25600,
,,,-00.001554000000,   0.25600,
,,,-00.001553000000,   0.24800,
,,,-00.001552000000,   0.24800,
,,,-00.001551000000,   0.24800,
,,,-00.001550000000,   0.24000,
,,,-00.001549000000,   0.24000,
,,,-00.001548000000,   0.23200,
,,,-00.001547000000,   0.23200,
,,,-00.001546000000,   0.23200,
,,,-00.001545000000,   0.22400,
,,,-00.001544000000,   0.22400,
,,,-00.001543000000,   0.22400,
,,,-00.001542000000,   0.22400,
,,,-00.001541000000,   0.21600,
,,,-00.001540000000,   0.21600,
,,,-00.001539000000,   0.21600,
,,,-00.001538000000,   0.20800,
,,,-00.001537000000,   0.20800,
,,,-00.001536000000,   0.20800,
,,,-00.001535000000,   0.20000,
,,,-00.001534000000,   0.20000,
,,,-00.001533000000,   0.19200,
,,,-00.001532000000,   0.19200,
,,,-00.001531000000,   0.19200,
,,,-00.001530000000,   0.18400,
,,,-00.001529000000,   0.18400,
,,,-00.001528000000,   0.17600,
,,,-00.001527000000,   0.17600,
,,,-00.001526000000,   0.17600,
,,,-00.001525000000,   0.16800,
,,,-00.001524000000,   0.16800,
,,,-00.001523000000,   0.16000,
,,,-00.001522000000,   0.16000,
,,,-00.001521000000,   0.15200,
,,,-00.001520000000,   0.15200,
,,,-00.001519000000,   0.15200,
,,,-00.001518000000,   0.14400,
,,,-00.001517000000,   0.13600,
,,,-00.001516000000,   0.13600,
,,,-00.001515000000,   0.13600,
,,,-00.001514000000,   0.12800,
,,,-00.001513000000,   0.12800,
,,,-00.001512000000,   0.12800,
,,,-00.001511000000,   0.12000,
,,,-00.001510000000,   0.12000,
,,,-00.001509000000,   0.11200,
,,,-00.001508000000,   0.11200,
,,,-00.001507000000,   0.11200,
,,,-00.001506000000,   0.10400,
,,,-00.001505000000,   0.10400,
,,,-00.001504000000,   0.10400,
,,,-00.001503000000,   0.09600,
,,,-00.001502000000,   0.09600,
,,,-00.001501000000,   0.09600,
,,,-00.001500000000,   0.08800,
,,,-00.001499000000,   0.08800,
,,,-00.001498000000,   0.08800,
,,,-00.001497000000,   0.08000,
,,,-00.001496000000,   0.08000,
,,,-00.001495000000,   0.07200,
,,,-00.001494000000,   0.07200,
,,,-00.001493000000,   0.06400,
,,,-00.001492000000,   0.06400,
,,,-00.001491000000,   0.05600,
,,,-00.001490000000,   0.05600,
,,,-00.001489000000,   0.05600,
,,,-00.001488000000,   0.04800,
,,,-00.001487000000,   0.04800,
,,,-00.001486000000,   0.04800,
,,,-00.001485000000,   0.04000,
,,,-00.001484000000,   0.03200,
,,,-00.001483000000,   0.03200,
,,,-00.001482000000,   0.03200,
,,,-00.001481000000,   0.02400,
,,,-00.001480000000,   0.02400,
,,,-00.001479000000,   0.02400,
,,,-00.001478000000,   0.01600,
,,,-00.001477000000,   0.00800,
,,,-00.001476000000,   0.00800,
,,,-00.001475000000,   0.00800,
,,,-00.001474000000,   0.00000,
,,,-00.001473000000,   0.00000,
,,,-00.001472000000,   0.00000,
,,,-00.001471000000,  -0.00800,
,,,-00.001470000000,  -0.00800,
,,,-00.001469000000,  -0.01600,
,,,-00.001468000000,  -0.01600,
,,,-00.001467000000,  -0.02400,
,,,-00.001466000000,  -0.02400,
,,,-00.001465000000,  -0.02400,
,,,-00.001464000000,  -0.03200,
,,,-00.001463000000,  -0.04000,
,,,-00.001462000000,  -0.04000,
,,,-00.001461000000,  -0.04000,
,,,-00.001460000000,  -0.04000,
,,,-00.001459000000,  -0.04800,
,,,-00.001458000000,  -0.04800,
,,,-00.001457000000,  -0.05600,
,,,-00.001456000000,  -0.05600,
,,,-00.001455000000,  -0.05600,
,,,-00.001454000000,  -0.06400,
,,,-00.001453000000,  -0.06400,
,,,-00.001452000000,  -0.07200,
,,,-00.001451000000,  -0.07200,
,,,-00.001450000000,  -0.08000,
,,,-00.001449000000,  -0.08000,
,,,-00.001448000000,  -0.08000,
,,,-00.001447000000,  -0.08800,
,,,-00.001446000000,  -0.08800,
,,,-00.001445000000,  -0.09600,
,,,-00.001444000000,  -0.09600,
,,,-00.001443000000,  -0.09600,
,,,-00.001442000000,  -0.09600,
,,,-00.001441000000,  -0.10400,
,,,-00.001440000000,  -0.11200,
,,,-00.001439000000,  -0.11200,
,,,-00.001438000000,  -0.11200,
,,,-00.001437000000,  -0.12000,
,,,-00.001436000000,  -0.12000,
,,,-00.001435000000,  -0.12800,
,,,-00.001434000000,  -0.12800,
,,,-00.001433000000,  -0.13600,
,,,-00.001432000000,  -0.13600,
,,,-00.001431000000,  -0.13600,
,,,-00.001430000000,  -0.14400,
,,,-00.001429000000,  -0.14400,
,,,-00.001428000000,  -0.14400,
,,,-00.001427000000,  -0.15200,
,,,-00.001426000000,  -0.15200,
,,,-00.001425000000,  -0.16000,
,,,-00.001424000000,  -0.16000,
,,,-00.001423000000,  -0.16800,
,,,-00.001422000000,  -0.16800,
,,,-00.001421000000,  -0.16800,
,,,-00.001420000000,  -0.17600,
,,,-00.001419000000,  -0.17600,
,,,-00.001418000000,  -0.17600,
,,,-00.001417000000,  -0.18400,
,,,-00.001416000000,  -0.18400,
,,,-00.001415000000,  -0.18400,
,,,-00.001414000000,  -0.18400,
,,,-00.001413000000,  -0.19200,
,,,-00.001412000000,  -0.19200,
,,,-00.001411000000,  -0.20000,
,,,-00.001410000000,  -0.20000,
,,,-00.001409000000,  -0.20000,
,,,-00.001408000000,  -0.20800,
,,,-00.001407000000,  -0.21600,
,,,-00.001406000000,  -0.21600,
,,,-00.001405000000,  -0.21600,
,,,-00.001404000000,  -0.21600,
,,,-00.001403000000,  -0.21600,
,,,-00.001402000000,  -0.22400,
,,,-00.001401000000,  -0.23200,
,,,-00.001400000000,  -0.23200,
,,,-00.001399000000,  -0.23200,
,,,-00.001398000000,  -0.24000,
,,,-00.001397000000,  -0.24000,
,,,-00.001396000000,  -0.24800,
,,,-00.001395000000,  -0.24800,
,,,-00.001394000000,  -0.24800,
,,,-00.001393000000,  -0.24800,
,,,-00.001392000000,  -0.25600,
,,,-00.001391000000,  -0.25600,
,,,-00.001390000000,  -0.26400,
,,,-00.001389000000,  -0.26400,
,,,-00.001388000000,  -0.27200,
,,,-00.001387000000,  -0.27200,
,,,-00.001386000000,  -0.27200,
,,,-00.001385000000,  -0.28000,
,,,-00.001384000000,  -0.28000,
,,,-00.001383000000,  -0.28000,
,,,-00.001382000000,  -0.28000,
,,,-00.001381000000,  -0.28800,
,,,-00.001380000000,  -0.28800,
,,,-00.001379000000,  -0.28800,
,,,-00.001378000000,  -0.29600,
,,,-00.001377000000,  -0.29600,
,,,-00.001376000000,  -0.29600,
,,,-00.001375000000,  -0.30400,
,,,-00.001374000000,  -0.30400,
,,,-00.001373000000,  -0.30400,
,,,-00.001372000000,  -0.31200,
,,,-00.001371000000,  -0.31200,
,,,-00.001370000000,  -0.31200,
,,,-00.001369000000,  -0.32000,
,,,-00.001368000000,  -0.32000,
,,,-00.001367000000,  -0.32000,
,,,-00.001366000000,  -0.32800,
,,,-00.001365000000,  -0.32800,
,,,-00.001364000000,  -0.32800,
,,,-00.001363000000,  -0.33600,
,,,-00.001362000000,  -0.32800,
,,,-00.001361000000,  -0.33600,
,,,-00.001360000000,  -0.33600,
,,,-00.001359000000,  -0.34400,
,,,-00.001358000000,  -0.34400,
,,,-00.001357000000,  -0.34400,
,,,-00.001356000000,  -0.35200,
,,,-00.001355000000,  -0.35200,
,,,-00.001354000000,  -0.36000,
,,,-00.001353000000,  -0.36000,
,,,-00.001352000000,  -0.36000,
,,,-00.001351000000,  -0.36000,
,,,-00.001350000000,  -0.36000,
,,,-00.001349000000,  -0.36800,
,,,-00.001348000000,  -0.36800,
,,,-00.001347000000,  -0.36800,
,,,-00.001346000000,  -0.37600,
,,,-00.001345000000,  -0.37600,
,,,-00.001344000000,  -0.37600,
,,,-00.001343000000,  -0.38400,
,,,-00.001342000000,  -0.37600,
,,,-00.001341000000,  -0.38400,
,,,-00.001340000000,  -0.38400,
,,,-00.001339000000,  -0.38400,
,,,-00.001338000000,  -0.38400,
,,,-00.001337000000,  -0.39200,
,,,-00.001336000000,  -0.39200,
,,,-00.001335000000,  -0.39200,
,,,-00.001334000000,  -0.40000,
,,,-00.001333000000,  -0.40000,
,,,-00.001332000000,  -0.40000,
,,,-00.001331000000,  -0.40800,
,,,-00.001330000000,  -0.40800,
,,,-00.001329000000,  -0.40800,
,,,-00.001328000000,  -0.40800,
,,,-00.001327000000,  -0.40800,
,,,-00.001326000000,  -0.41600,
,,,-00.001325000000,  -0.41600,
,,,-00.001324000000,  -0.41600,
,,,-00.001323000000,  -0.41600,
,,,-00.001322000000,  -0.42400,
,,,-00.001321000000,  -0.42400,
,,,-00.001320000000,  -0.42400,
,,,-00.001319000000,  -0.42400,
,,,-00.001318000000,  -0.42400,
,,,-00.001317000000,  -0.43200,
